avg_acc,epoch,step
0.95703125,0,467
0.9710739850997925,1,935
0.9767942428588867,2,1403
0.9801204204559326,3,1871
0.9822026491165161,4,2339
0.9838430881500244,5,2807
0.9850165247917175,6,3275
0.9858726263046265,7,3743
0.9866721630096436,8,4211
0.9872622489929199,9,4679
0.987808883190155,10,5147
0.98828125,11,5615
0.9887118339538574,12,6083
0.9890096783638,13,6551
0.9892477989196777,14,7019
0.9895312786102295,15,7487
0.9897519946098328,16,7955
0.9899537563323975,17,8423
0.9901238083839417,18,8891
0.9902868866920471,19,9359
0.9904487133026123,20,9827
0.9905503988265991,21,10295
0.9906693696975708,22,10763
0.9908159375190735,23,11231
0.990918755531311,24,11699
0.9910444617271423,25,12167
0.9911349415779114,26,12635
0.9912404417991638,27,13103
0.9913455247879028,28,13571
0.9914369583129883,29,14039
0.9915385842323303,30,14507
0.9916057586669922,31,14975
0.9916658401489258,32,15443
0.9917488694190979,33,15911
0.9918386340141296,34,16379
0.9918955564498901,35,16847
0.9919494390487671,36,17315
0.9920004606246948,37,17783
0.9920591711997986,38,18251
0.9921099543571472,39,18719
0.9921655058860779,40,19187
0.9922232627868652,41,19655
0.9922922849655151,42,20123
0.9923308491706848,43,20591
0.9923698902130127,44,21059
0.992405116558075,45,21527
0.9924430847167969,46,21995
0.992469072341919,47,22463
0.9925082325935364,48,22931
0.9925438761711121,49,23399
0.9925742149353027,50,23867
0.99261873960495,51,24335
0.9926578402519226,52,24803
0.9926899075508118,53,25271
0.9927208423614502,54,25739
0.9927542209625244,55,26207
0.9927829504013062,56,26675
0.9928140640258789,57,27143
0.9928408265113831,58,27611
0.9928733110427856,59,28079
0.992898166179657,60,28547
0.9929109215736389,61,29015
0.9929296374320984,62,29483
